<svg xmlns="http://www.w3.org/2000/svg" width="98" height="98" viewBox="0 0 98 98">
    <defs>
        <filter id="80wz2496wa" width="98" height="98" x="0" y="0" filterUnits="userSpaceOnUse">
            <feOffset dy="3"/>
            <feGaussianBlur result="blur" stdDeviation="3"/>
            <feFlood flood-opacity=".161"/>
            <feComposite in2="blur" operator="in"/>
            <feComposite in="SourceGraphic"/>
        </filter>
    </defs>
    <g>
        <g filter="url(#80wz2496wa)" transform="translate(-1774 -931) translate(1774 931)">
            <g fill="#9ac622" stroke="#fff" stroke-width="2px" transform="translate(9 6)">
                <circle cx="40" cy="40" r="40" stroke="none"/>
                <circle cx="40" cy="40" r="39" fill="none"/>
            </g>
        </g>
        <path fill="#fff" d="M2080 29V14h-15a3 3 0 0 1 0-6h15V-7a3 3 0 0 1 3-3 3 3 0 0 1 3 3V8h15a3 3 0 1 1 0 6h-15v15a3 3 0 1 1-6 0z" transform="translate(-1774 -931) translate(-260 966)"/>
    </g>
</svg>
