<svg xmlns="http://www.w3.org/2000/svg" width="34.52" height="12" viewBox="0 0 34.52 12">
    <path fill="#df5959" d="M123.4 389.937l-10.073 6.407a1.874 1.874 0 0 1-.844.256H90.211l-.512-6.951 4.641-.741 4.793-3.066a9.23 9.23 0 0 1 4.3-1.242h8.292a1.473 1.473 0 0 1 1.1.5 2.965 2.965 0 0 1 .222 1.733 1.574 1.574 0 0 1-1.614 1.32h-4.377c-1.654 0-2.791.278-2.791 1.951 0 1.654 1.3 2.5 2.955 2.5h5.252l9.309-4.7c.064-.032 1.6-.763 2.2.169a1.144 1.144 0 0 1 .216.873 1.906 1.906 0 0 1-.797.991z" transform="translate(-89.699 -384.6)"/>
</svg>
